{
  "name": "whotoc",
  "css_prefix_text": "icon-",
  "css_use_suffix": false,
  "hinting": true,
  "units_per_em": 1000,
  "ascent": 850,
  "glyphs": [
    {
      "uid": "750058837a91edae64b03d60fc7e81a7",
      "css": "ellipsis-vert",
      "code": 61762,
      "src": "fontawesome"
    },
    {
      "uid": "a5f662d2a4f67d9bcd22fac4362a8768",
      "css": "arrow-down",
      "code": 59392,
      "src": "custom_icons",
      "selected": true,
      "svg": {
        "path": "M1215.5 104.4C1280.6 39.3 1386.1 39.3 1451.2 104.4 1512.2 165.4 1516 262 1462.6 327.4L1451.2 340.1 895.6 895.6C834.6 956.6 738 960.5 672.6 907.1L659.9 895.6 104.4 340.1C39.3 275 39.3 169.5 104.4 104.4 165.4 43.4 262 39.5 327.4 92.9L340.1 104.4 777.8 542.1 1215.5 104.4Z",
        "width": 1556
      },
      "search": [
        "arrowdown"
      ]
    },
    {
      "uid": "676d036052134eb805e85a8d082f33c5",
      "css": "radar",
      "code": 59412,
      "src": "custom_icons",
      "selected": true,
      "svg": {
        "path": "M500 437.5C465.5 437.5 437.5 465.5 437.5 500 437.5 534.5 465.5 562.5 500 562.5 534.5 562.5 562.5 534.5 562.5 500 562.5 465.5 534.5 437.5 500 437.5ZM500 125C292.9 125 125 292.9 125 500 125 707.1 292.9 875 500 875 707.1 875 875 707.1 875 500 875 292.9 707.1 125 500 125ZM500 218.8C655.3 218.8 781.3 344.7 781.3 500 781.3 655.3 655.3 781.3 500 781.3 344.7 781.3 218.8 655.3 218.8 500 218.8 344.7 344.7 218.8 500 218.8ZM500 250C361.9 250 250 361.9 250 500 250 638.1 361.9 750 500 750 638.1 750 750 638.1 750 500 750 361.9 638.1 250 500 250ZM500 343.8C586.3 343.8 656.3 413.7 656.3 500 656.3 586.3 586.3 656.3 500 656.3 413.7 656.3 343.8 586.3 343.8 500 343.8 413.7 413.7 343.8 500 343.8ZM500 0C223.9 0 0 223.9 0 500 0 776.1 223.9 1000 500 1000 776.1 1000 1000 776.1 1000 500 1000 223.9 776.1 0 500 0ZM500 93.8C724.4 93.8 906.3 275.6 906.3 500 906.3 724.4 724.4 906.3 500 906.3 275.6 906.3 93.8 724.4 93.8 500 93.8 275.6 275.6 93.8 500 93.8Z",
        "width": 1000
      },
      "search": [
        "tabbarradar"
      ]
    },
    {
      "uid": "04803e12ab2159492b5de447e398a42b",
      "css": "whotoc-mini",
      "code": 59414,
      "src": "custom_icons",
      "selected": true,
      "svg": {
        "path": "M603.2 469.3C608.6 538.1 550.5 595 481.2 588 429 582.6 387.2 540.1 382.5 488 382.5 487.1 382.4 486.2 382.3 485.2 381 463.3 413.9 458.1 435.5 454.4 453.2 451.4 467.7 437.2 470.9 419.5 474.7 398.4 480.8 366.2 502.2 368 505.4 368.3 508.5 368.7 511.7 369.3 561.2 377.8 599.4 419.4 603.2 469.3ZM689.4 630.5C678.6 619.6 675.8 603.3 682.9 591.6 739.6 497.3 717.1 374.1 630.7 305 550.8 241.2 434.8 241.2 355.1 305 305.6 344.5 275.3 403.1 271.8 465.7 268.8 518.1 284.7 569.6 315.9 611.1 326.2 624.8 346 624.7 358.1 612.6 370.2 600.5 369.9 581 360.4 566.8 341.3 538.2 331.7 504 333.6 469.2 336.2 423.5 357.5 382.4 393.8 353.4 451.1 307.4 534.4 307.4 591.9 353.4 654.2 403.2 670.5 491.9 629.7 559.7 607.8 596 614.4 643.1 645.5 674.2L661.4 690.1C680.9 709.6 714.3 695.7 714.3 668.1 714.3 659.9 711 652 705.2 646.2L689.4 630.5Z",
        "width": 1000
      },
      "search": [
        "tocbackgroundsmall"
      ]
    },
    {
      "uid": "652ab0f1578f66fe3a016a1bf22b9a15",
      "css": "arrow-up",
      "code": 59393,
      "src": "custom_icons",
      "selected": true,
      "svg": {
        "path": "M344.8 0C323.6 0 306.5 17.2 306.5 38.3V957.9C306.5 979.1 323.6 996.2 344.8 996.2 365.9 996.2 383.1 979.1 383.1 957.9V38.3C383.1 17.2 365.9 0 344.8 0ZM678.4 317.7L371.9 11.2C357-3.7 332.7-3.7 317.7 11.2L11.2 317.7C-3.7 332.7-3.7 357 11.2 371.9 26.2 386.9 50.4 386.9 65.4 371.9L344.8 92.5 624.2 372C631.7 379.4 641.5 383.2 651.3 383.2 661.1 383.2 670.9 379.4 678.4 371.9 693.4 357 693.4 332.7 678.4 317.7Z",
        "width": 690
      },
      "search": [
        "arrowlargeup"
      ]
    },
    {
      "uid": "db7f3aaf3e363d53d9c1cf04a5c1d99a",
      "css": "block",
      "code": 59394,
      "src": "custom_icons",
      "selected": true,
      "svg": {
        "path": "M500 0C223.8 0 0 223.8 0 500 0 776.2 223.8 1000 500 1000 776.2 1000 1000 776.2 1000 500 1000 223.7 776.2 0 500 0ZM100 500C100 279 279 100 500 100 592.5 100 677.3 131.7 745 184.2L184.2 745C131.7 677.3 100 592.5 100 500ZM500 900C407.5 900 322.7 868.3 255 815.7L815.7 255C868.3 322.8 900 407.5 900 500 900 721 721 900 500 900Z",
        "width": 1000
      },
      "search": [
        "blockuser"
      ]
    },
    {
      "uid": "cbad2904ea01e2b17aaf318672375cb4",
      "css": "whotoc-logo",
      "code": 59415,
      "src": "custom_icons",
      "selected": true,
      "svg": {
        "path": "M757.1 474.4C768.8 625.1 641.8 749.5 490.1 734.1 376.1 722.4 284.4 629.4 274.3 515.5 273.1 501.8 273.1 488.3 274.1 475.1 276.7 441.8 323.2 435.8 356.1 441.8 366.9 443.8 378.4 443.9 390.2 441.9 428.9 435.3 460.6 404.3 467.5 365.6 469.5 354.7 469.6 344 468.1 333.9 463.3 300.7 470.8 254 504.3 252.4 521.4 251.6 539 252.6 556.9 255.7 665.1 274.3 748.6 365.4 757.1 474.4ZM945.6 827C921.9 803.4 915.9 767.7 931.3 742 1055.3 535.7 1006.2 266.3 817.2 115.2 642.3-24.5 388.7-24.5 214.2 115.2 106.1 201.6 39.7 329.6 32 466.6 25.6 581.3 60.4 694 128.6 784.7 151.1 814.6 194.4 814.4 220.9 788V788C247.4 761.5 246.8 718.9 225.9 687.7 184.1 625.3 163.1 550.3 167.4 474.3 172.9 374.3 219.7 284.3 299 220.9 424.3 120.5 606.5 120.5 732.3 220.9 868.5 329.9 904.1 523.9 814.9 672.3 767.1 751.8 781.4 854.8 849.6 922.8L884.3 957.4C927 1000.1 1000 969.8 1000 909.4V909.4C1000 891.4 992.8 874.2 980.1 861.4L945.6 827Z",
        "width": 1000
      },
      "search": [
        "whotoclogo"
      ]
    },
    {
      "uid": "5d4bdddf00ce56824a52dc1daa7c0278",
      "css": "discovery",
      "code": 59416,
      "src": "custom_icons",
      "selected": true,
      "svg": {
        "path": "M961 840.9L953.2 849.1C862.4 942.2 735.6 1000 595.2 1000 450.8 1000 320.7 938.8 229.4 840.9 260.2 828.9 287.8 810.7 310.7 787.9 383.8 860.1 484.3 904.8 595.2 904.8 706.2 904.8 806.7 860.1 879.8 787.9 902.7 810.7 930.3 828.9 961 840.9ZM1047.6 476.2C1064.2 476.2 1080.2 479 1095 484.2L1095.1 486.5 1095.1 486.5 1095.2 500C1095.2 595.1 1068.7 684 1022.6 759.8 989.7 753.9 960.7 736.8 939.7 712.6 977.9 650.8 1000 578 1000 500 1000 494.8 999.9 489.6 999.7 484.4 1014.7 479.1 1030.8 476.2 1047.6 476.2ZM142.9 476.2C159.7 476.2 175.8 479.1 190.8 484.4L190.7 487.8 190.7 487.8 190.5 500C190.5 578 212.5 650.8 250.7 712.6 229.8 736.8 200.8 753.9 167.9 759.7 121.8 684 95.2 595.1 95.2 500 95.2 494.7 95.3 489.5 95.5 484.3 110.3 479 126.2 476.2 142.9 476.2ZM595.2 0C831.2 0 1029 163.5 1081.6 383.4 1070.5 381.8 1059.1 381 1047.6 381 1025.8 381 1004.7 383.9 984.7 389.4 936.6 219.6 780.4 95.2 595.2 95.2 410 95.2 253.9 219.6 205.8 389.4 185.7 383.9 164.6 381 142.9 381 131.3 381 120 381.8 108.9 383.4 161.4 163.5 359.2 0 595.2 0ZM142.9 476.2C64 476.2 0 540.1 0 619 0 697.9 64 761.9 142.9 761.9 221.8 761.9 285.7 697.9 285.7 619 285.7 540.1 221.8 476.2 142.9 476.2ZM1047.6 476.2C968.7 476.2 904.8 540.1 904.8 619 904.8 697.9 968.7 761.9 1047.6 761.9 1126.5 761.9 1190.5 697.9 1190.5 619 1190.5 540.1 1126.5 476.2 1047.6 476.2Z",
        "width": 1190
      },
      "search": [
        "navbardescubrir"
      ]
    },
    {
      "uid": "975fb7612f9c2fd81d918ec187988f4a",
      "css": "camera",
      "code": 59395,
      "src": "custom_icons",
      "selected": true,
      "svg": {
        "path": "M621.9 430.7C539 430.7 471.6 498.2 471.6 581.1 471.6 664 539 731.4 621.9 731.4 704.9 731.4 772.3 664 772.3 581.1 772.3 498.2 704.8 430.7 621.9 430.7ZM621.9 702.1C555.2 702.1 500.9 647.8 500.9 581.1 500.9 514.3 555.2 460 621.9 460 688.7 460 743 514.3 743 581.1 743 647.8 688.7 702.1 621.9 702.1ZM621.9 525.1C591 525.1 565.9 550.2 565.9 581.1 565.9 611.9 591 637.1 621.9 637.1 652.8 637.1 677.9 611.9 677.9 581.1 677.9 550.2 652.8 525.1 621.9 525.1ZM621.9 607.8C607.2 607.8 595.2 595.8 595.2 581.1 595.2 566.3 607.2 554.4 621.9 554.4 636.6 554.4 648.6 566.3 648.6 581.1 648.6 595.8 636.6 607.8 621.9 607.8ZM1000 779V359.7 292.6C1000 254.6 969.1 223.8 931.2 223.8H846.7C846.7 161.5 799.2 121.6 748 121.6H656.1C648 121.6 641.5 128.2 641.5 136.2 641.5 144.3 648 150.9 656.1 150.9H748C783.5 150.9 817.4 178.2 817.4 223.8H426.4C426.4 178.2 460.4 150.9 495.9 150.9H587.8C595.8 150.9 602.4 144.3 602.4 136.2 602.4 128.2 595.8 121.6 587.8 121.6H495.9C444.9 121.6 397.1 161.2 397.1 223.8H231.5C232.3 220.6 232.8 217.3 232.8 213.9V186C232.8 164.4 215.2 146.8 193.6 146.8H98.3C76.7 146.8 59.1 164.4 59.1 186V213.9C59.1 217.5 59.6 221 60.5 224.3 26.5 228.4 0 257.4 0 292.6V779C0 816.9 30.9 847.8 68.8 847.8H490.5C530.2 867.4 574.8 878.4 621.9 878.4 669.1 878.4 713.7 867.4 753.3 847.8H931.2C969.1 847.8 1000 816.9 1000 779ZM931.2 253.1C953 253.1 970.7 270.8 970.7 292.6V345H802.6C749.6 304.4 687 283.7 621.9 283.7 556.6 283.7 494 304.5 441.3 345H291.9V292.6C291.9 279 287.8 264.9 279.4 253.1H931.2ZM88.4 186C88.4 180.6 92.9 176.1 98.3 176.1H193.6C199 176.1 203.5 180.6 203.5 186V213.9C203.5 219.2 199 223.8 193.6 223.8H98.3C92.9 223.8 88.4 219.2 88.4 213.9V186ZM29.3 292.6C29.3 270.8 47 253.1 68.8 253.1H223.1C244.9 253.1 262.6 270.8 262.6 292.6V345H29.3V292.6ZM29.3 779V374.3H262.6V779C262.6 800.7 244.9 818.5 223.1 818.5H68.8C47 818.5 29.3 800.7 29.3 779ZM279.4 818.5C287.7 806.7 291.9 792.8 291.9 779V374.3H408.4C356.6 427.9 324.6 500.8 324.6 581.1 324.6 675.2 369 762.5 443.1 818.5H279.4ZM353.9 581.1C353.9 433.1 474.3 313 621.9 313 768.4 313 890 431.8 890 581.1 890 729.2 769.4 849.1 621.9 849.1 474 849.1 353.9 728.7 353.9 581.1ZM919.3 581.1C919.3 501.7 887.9 428.5 835.4 374.3H970.7V779C970.7 800.7 953 818.5 931.2 818.5H800.8C875.5 762.1 919.3 674.3 919.3 581.1ZM855.2 617.5C856.4 609.5 850.9 602 842.9 600.8 834.9 599.5 827.5 605 826.2 613 810.6 713.2 723.6 787.8 621.9 787.8 507.9 787.8 415.2 695.1 415.2 581.1 415.2 467.1 507.9 374.3 621.9 374.3 723.7 374.3 810.6 449 826.2 549.1 827.5 557.1 834.9 562.6 842.9 561.4 850.9 560.1 856.4 552.6 855.2 544.6 837.3 430.1 738 345 621.9 345 491.8 345 385.9 450.9 385.9 581.1 385.9 711.2 491.8 817.1 621.9 817.1 737.9 817.1 837.3 732.2 855.2 617.5Z",
        "width": 1000
      },
      "search": [
        "cameramessage"
      ]
    },
    {
      "uid": "26b9b8b6b672abf18c5e87d8d331fe58",
      "css": "check",
      "code": 59396,
      "src": "custom_icons",
      "selected": true,
      "svg": {
        "path": "M1080.7 73.4C1123.2 31 1192 31 1234.5 73.4 1275.1 114 1276.8 178.8 1239.8 221.5L1234.5 227.2 503.3 958.3C462.7 998.9 398 1000.7 355.3 963.6L349.6 958.3 46.4 655.2C4 612.7 4 543.9 46.4 501.4 87 460.8 151.8 459.1 194.5 496.1L200.2 501.4 426.4 727.7 1080.7 73.4Z",
        "width": 1304
      },
      "search": [
        "check"
      ]
    },
    {
      "uid": "28ad63635c3b1d70b1379f79d1a05ebe",
      "css": "clear",
      "code": 59397,
      "src": "custom_icons",
      "selected": true,
      "svg": {
        "path": "M974.3 25.7C940-8.6 884.3-8.6 850 25.7L485 390.7 471.2 376.8C464.3 369.9 454.4 366.9 444.8 368.8 435.2 370.7 427.2 377.3 423.4 386.4L382.1 486.8 342.2 489.1C220.6 496.3 106.1 540.3 11 616.4 0.2 625-3.1 640 3.1 652.3 79.3 804.8 195.2 920.7 347.7 996.9 351.8 999 356.3 1000 360.7 1000 369.4 1000 377.9 996.1 383.6 989 459.7 893.9 503.7 779.3 510.9 657.8L513.2 617.9 613.6 576.6C622.6 572.8 629.2 564.8 631.2 555.2 633.1 545.6 630.1 535.7 623.2 528.8L609.3 514.9 974.3 150C1008.6 115.7 1008.6 60 974.3 25.7ZM352.4 933.4C338.7 925.9 325.3 918.1 312.2 910L372.3 805.8C380.4 791.8 375.6 773.9 361.6 765.8 347.6 757.7 329.7 762.5 321.6 776.5L263.6 876.9C244.6 862.8 226.5 847.9 209.3 832.1L298.6 742.8C310.1 731.4 310.1 712.8 298.6 701.4 287.2 690 268.6 690 257.2 701.4L167.9 790.7C152.1 773.5 137.2 755.4 123.1 736.4L223.5 678.4C237.5 670.3 242.3 652.4 234.2 638.4 226.1 624.4 208.2 619.6 194.2 627.7L90 687.8C81.9 674.7 74.1 661.3 66.6 647.6 148.3 588 244.3 553.6 345.7 547.6L390.8 545 455 609.2 452.4 654.3C446.4 755.7 412 851.7 352.4 933.4ZM492 563.3L436.7 508 460.9 449.3 550.7 539.1 492 563.3ZM932.9 108.6L568 473.5 526.5 432 891.4 67.1C902.9 55.7 921.4 55.7 932.9 67.1 944.3 78.6 944.3 97.1 932.9 108.6Z",
        "width": 1000
      },
      "search": [
        "cleanconversation"
      ]
    },
    {
      "uid": "5e1a76622fe6299e8500c76cb1623f68",
      "css": "close",
      "code": 59398,
      "src": "custom_icons",
      "selected": true,
      "svg": {
        "path": "M52.2 52.2C82.7 21.7 131 19.8 163.7 46.5L170 52.2 947.8 830C980.4 862.5 980.4 915.3 947.8 947.8 917.3 978.3 869 980.2 836.3 953.5L830 947.8 52.2 170C19.6 137.5 19.6 84.7 52.2 52.2ZM830 52.2C862.5 19.6 915.3 19.6 947.8 52.2 978.3 82.7 980.2 131 953.5 163.7L947.8 170 170 947.8C137.5 980.4 84.7 980.4 52.2 947.8 21.7 917.3 19.8 869 46.5 836.3L52.2 830 830 52.2Z",
        "width": 1000
      },
      "search": [
        "closex"
      ]
    },
    {
      "uid": "331c55ab1b247fc5b7cf92b69b175304",
      "css": "trash",
      "code": 59399,
      "src": "custom_icons",
      "selected": true,
      "svg": {
        "path": "M828.1 125H656.3V93.8C656.3 42.1 614.2 0 562.5 0H437.5C385.8 0 343.8 42.1 343.8 93.8V125H171.9C128.8 125 93.8 160 93.8 203.1V312.5C93.8 329.8 107.7 343.8 125 343.8H142.1L169.1 910.7C171.5 960.8 212.6 1000 262.7 1000H737.3C787.4 1000 828.5 960.8 830.9 910.7L857.9 343.8H875C892.3 343.8 906.3 329.8 906.3 312.5V203.1C906.3 160 871.2 125 828.1 125ZM406.3 93.8C406.3 76.5 420.3 62.5 437.5 62.5H562.5C579.7 62.5 593.8 76.5 593.8 93.8V125H406.3V93.8ZM156.3 203.1C156.3 194.5 163.3 187.5 171.9 187.5H828.1C836.7 187.5 843.8 194.5 843.8 203.1V281.3C834.1 281.3 196.2 281.3 156.3 281.3V203.1ZM768.5 907.7C767.7 924.4 754 937.5 737.3 937.5H262.7C246 937.5 232.3 924.4 231.5 907.7L204.6 343.8H795.3L768.5 907.7ZM500 875C517.3 875 531.3 861 531.3 843.8V437.5C531.3 420.2 517.3 406.3 500 406.3 482.7 406.3 468.8 420.2 468.8 437.5V843.8C468.8 861 482.7 875 500 875ZM656.3 875C673.5 875 687.5 861 687.5 843.8V437.5C687.5 420.2 673.5 406.3 656.3 406.3 639 406.3 625 420.2 625 437.5V843.8C625 861 639 875 656.3 875ZM343.8 875C361 875 375 861 375 843.8V437.5C375 420.2 361 406.3 343.8 406.3 326.5 406.3 312.5 420.2 312.5 437.5V843.8C312.5 861 326.5 875 343.8 875Z",
        "width": 1000
      },
      "search": [
        "deleteconversation"
      ]
    },
    {
      "uid": "f200366d06f15a8b53a7eeceb78ab9df",
      "css": "logout",
      "code": 59400,
      "src": "custom_icons",
      "selected": true,
      "svg": {
        "path": "M968.7 468.8H572.9C555.6 468.8 541.6 454.8 541.6 437.5 541.6 420.3 555.6 406.3 572.9 406.3H968.7C986 406.3 1000 420.3 1000 437.5 1000 454.8 986 468.8 968.7 468.8ZM812.5 625C804.5 625 796.5 622 790.4 615.8 778.2 603.6 778.2 583.8 790.4 571.6L924.6 437.5 790.4 303.3C778.2 291.1 778.2 271.3 790.4 259.1 802.6 246.9 822.4 246.9 834.6 259.1L990.9 415.4C1003.1 427.6 1003.1 447.3 990.9 459.6L834.6 615.8C828.5 622 820.5 625 812.5 625ZM333.3 1000C324.4 1000 315.9 998.7 307.5 996.1L56.7 912.6C22.6 900.7 0 868.9 0 833.3V83.4C0 37.4 37.4 0 83.3 0 92.2 0 100.7 1.3 109.2 3.9L359.9 87.4C394 99.4 416.7 131.2 416.7 166.7V916.7C416.7 962.6 379.3 1000 333.3 1000ZM83.3 62.5C71.9 62.5 62.5 71.9 62.5 83.4V833.3C62.5 842.2 68.5 850.5 77 853.4L326.5 936.6C328.3 937.2 330.7 937.5 333.3 937.5 344.8 937.5 354.2 928.1 354.2 916.7V166.7C354.2 157.8 348.2 149.6 339.7 146.6L90.1 63.4C88.3 62.9 86 62.5 83.3 62.5ZM635.4 333.4C618.1 333.4 604.1 319.4 604.1 302.1V114.6C604.1 85.9 580.8 62.5 552.1 62.5H83.3C66.1 62.5 52.1 48.5 52.1 31.3 52.1 14 66.1 0 83.3 0H552.1C615.3 0 666.6 51.4 666.6 114.6V302.1C666.6 319.4 652.6 333.4 635.4 333.4ZM552.1 875H385.4C368.2 875 354.2 861 354.2 843.8 354.2 826.5 368.2 812.5 385.4 812.5H552.1C580.8 812.5 604.2 789.1 604.2 760.4V572.9C604.2 555.7 618.2 541.7 635.4 541.7 652.7 541.7 666.7 555.7 666.7 572.9V760.4C666.7 823.6 615.3 875 552.1 875Z",
        "width": 1000
      },
      "search": [
        "logout"
      ]
    },
    {
      "uid": "4a5fcf2d58b833fb0f2b48d777885743",
      "css": "mute",
      "code": 59401,
      "src": "custom_icons",
      "selected": true,
      "svg": {
        "path": "M740.7 9.5C728.8 2.7 714.1 2.8 702.3 9.7L281.2 256.1H48.5C27.4 256.1 10.2 273.2 10.2 294.4V705.6C10.2 726.8 27.4 743.9 48.5 743.9H140.5C161.7 743.9 178.8 726.8 178.8 705.6 178.8 684.5 161.7 667.3 140.5 667.3H86.9V332.7H292.5C301.3 332.7 309.9 329.6 316.7 324.1L683.3 109.6V151.3C683.3 172.5 700.4 189.7 721.6 189.7 742.8 189.7 759.9 172.5 759.9 151.3V42.8C759.9 29.1 752.6 16.4 740.7 9.5ZM721.6 423.4C700.4 423.4 683.3 440.5 683.3 461.7V893.6L379.3 733.1C360.6 723.2 337.4 730.3 327.6 749 317.7 767.7 324.8 790.9 343.5 800.8L703.7 991.1C709.3 994.1 715.5 995.5 721.6 995.5 728.4 995.5 735.3 993.7 741.4 990 752.9 983.1 759.9 970.7 759.9 957.2V461.7C759.9 440.5 742.8 423.4 721.6 423.4ZM989.8 67.9C975.4 52.3 951.2 51.4 935.7 65.7L12.3 920.2C-3.2 934.5-4.2 958.8 10.2 974.3 17.7 982.5 28 986.6 38.3 986.6 47.6 986.6 57 983.2 64.3 976.4L987.7 122C1003.2 107.6 1004.2 83.4 989.8 67.9ZM291.2 262.5C270 262.5 252.9 279.6 252.9 300.8V562.6C252.9 583.8 270 600.9 291.2 600.9 312.3 600.9 329.5 583.8 329.5 562.6V300.8C329.5 279.6 312.4 262.5 291.2 262.5Z",
        "width": 1000
      },
      "search": [
        "muteconversation"
      ]
    },
    {
      "uid": "015fc94e3186748096b06e53772223d7",
      "css": "back",
      "code": 59402,
      "src": "custom_icons",
      "selected": true,
      "svg": {
        "path": "M447 47C476.3 17.7 523.7 17.7 553 47 580.5 74.4 582.2 117.9 558.2 147.3L553 153 206.1 500 553 847C580.5 874.4 582.2 917.9 558.2 947.3L553 953C525.6 980.5 482.1 982.2 452.7 958.2L447 953 47 553C19.5 525.6 17.8 482.1 41.8 452.7L47 447 447 47Z",
        "width": 600
      },
      "search": [
        "navbarback"
      ]
    },
    {
      "uid": "6820b5b39f70972ca02a60da3d0c17d8",
      "css": "list",
      "code": 59404,
      "src": "custom_icons",
      "selected": true,
      "svg": {
        "path": "M60 18.9C26.9 18.9 0 45.8 0 78.9 0 112.1 26.9 138.9 60 138.9H100C133.1 138.9 160 112.1 160 78.9 160 45.8 133.1 18.9 100 18.9H60ZM340 18.9C306.9 18.9 280 45.8 280 78.9 280 112.1 306.9 138.9 340 138.9H940C973.1 138.9 1000 112.1 1000 78.9 1000 45.8 973.1 18.9 940 18.9H340ZM60 418.9C26.9 418.9 0 445.8 0 478.9 0 512.1 26.9 538.9 60 538.9H100C133.1 538.9 160 512.1 160 478.9 160 445.8 133.1 418.9 100 418.9H60ZM340 418.9C306.9 418.9 280 445.8 280 478.9 280 512.1 306.9 538.9 340 538.9H820C853.1 538.9 880 512.1 880 478.9 880 445.8 853.1 418.9 820 418.9H340ZM60 818.9C26.9 818.9 0 845.8 0 878.9 0 912.1 26.9 938.9 60 938.9H100C133.1 938.9 160 912.1 160 878.9 160 845.8 133.1 818.9 100 818.9H60ZM340 818.9C306.9 818.9 280 845.8 280 878.9 280 912.1 306.9 938.9 340 938.9H940C973.1 938.9 1000 912.1 1000 878.9 1000 845.8 973.1 818.9 940 818.9H340Z",
        "width": 1000
      },
      "search": [
        "navbarlist"
      ]
    },
    {
      "uid": "09bb7ea69f58586ba7e97c8d3c3cb6a2",
      "css": "power",
      "code": 59405,
      "src": "custom_icons",
      "selected": true,
      "svg": {
        "path": "M734.4 214.9C710.5 193.7 673.9 195.8 652.6 219.8 631.4 243.7 633.6 280.3 657.5 301.5 724.4 360.9 762.7 446.2 762.7 535.5 762.7 708 622.5 848.3 450 848.3 277.6 848.3 137.3 708 137.3 535.5 137.3 445.3 176.3 359.4 244.3 300 268.3 278.9 270.8 242.3 249.7 218.3 228.7 194.2 192.1 191.7 168 212.8 74.9 294.2 21.4 411.9 21.4 535.5 21.4 771.8 213.7 964.1 450 964.1 686.3 964.1 878.6 771.8 878.6 535.5 878.6 413.1 826 296.2 734.4 214.9ZM450 439C482 439 507.9 413.1 507.9 381.1V72.2C507.9 40.2 482 14.3 450 14.3 418 14.3 392.1 40.2 392.1 72.2V381.1C392.1 413.1 418 439 450 439Z",
        "width": 900
      },
      "search": [
        "navbarpoweron"
      ]
    },
    {
      "uid": "7b79ee8c905ea02ab8b8d689148a357e",
      "css": "navbarsearch",
      "code": 59406,
      "src": "custom_icons",
      "selected": true,
      "svg": {
        "path": "M668.8 581.1C786.3 415.1 747 185.2 581.1 67.7 415.1-49.8 185.2-10.5 67.7 155.5-49.8 321.5-10.5 551.3 155.5 668.8 274 752.7 430.6 759.1 555.6 685.3L827.1 955.2C856.4 986.1 905.2 987.3 936 958 966.9 928.7 968.1 879.9 938.8 849.1 937.9 848.1 937 847.2 936 846.3L668.8 581.1ZM368 606.2C236.9 606.2 130.5 500 130.5 368.8 130.4 237.7 236.7 131.3 367.9 131.3 498.9 131.2 605.1 237.3 605.4 368.3 605.6 499.5 499.4 606 368.2 606.2 368.2 606.2 368.1 606.2 368 606.2Z",
        "width": 960
      },
      "search": [
        "navbarsearch"
      ]
    },
    {
      "uid": "418413733883974bff3381343efccd16",
      "css": "notification",
      "code": 59407,
      "src": "custom_icons",
      "selected": true,
      "svg": {
        "path": "M821.3 649.7V414.1C821.3 283.5 733.2 173.1 613.2 139V92.2C613.2 41.4 571.8 0 520.8 0 469.9 0 428.5 41.4 428.5 92.2V139C308.5 173.1 220.4 283.5 220.4 414.1V649.7C166.8 655.7 125 701.2 125 756.2V764.7C125 823.8 173.1 871.8 232.3 871.8H402.6V882C402.6 947.1 455.7 1000 520.8 1000 586 1000 639 947.1 639 882V871.8H809.4C868.5 871.8 916.7 823.8 916.7 764.7V756.2C916.7 701.2 874.9 655.7 821.3 649.7ZM489.2 92.2C489.2 74.8 503.4 60.7 520.8 60.7 538.3 60.7 552.4 74.8 552.4 92.2V128.7C546.6 128.4 540.8 128.2 534.9 128.2H506.7C500.8 128.2 495 128.4 489.2 128.7V92.2ZM281.1 414.1C281.1 289.9 382.3 188.8 506.7 188.8H534.9C659.3 188.8 760.5 289.9 760.5 414.1V649.1H281.1V414.1ZM520.8 939.3C489.2 939.3 463.4 913.6 463.4 882V871.8H578.3V882H578.3C578.3 913.6 552.5 939.3 520.8 939.3ZM855.9 764.7H855.9C855.9 790.3 835 811.2 809.4 811.2H232.3C206.6 811.2 185.8 790.3 185.8 764.7V756.2C185.8 730.6 206.6 709.7 232.3 709.7H250.7 790.9 809.4C835 709.7 855.9 730.6 855.9 756.2V764.7Z",
        "width": 1000
      },
      "search": [
        "notification"
      ]
    },
    {
      "uid": "f3809128f2fcc20110e88472e37868dd",
      "css": "send",
      "code": 59408,
      "src": "custom_icons",
      "selected": true,
      "svg": {
        "path": "M230.1 275.3C224.7 290.9 224.7 307.9 230.1 323.4L432 904C445.3 942.3 487.1 962.5 525.3 949.2 544.8 942.5 560.6 927.8 568.7 908.8L670.7 670.7 908.8 568.7C946.1 552.6 963.3 509.4 947.2 472.1 943.5 463.7 938.4 456 931.9 449.5 924 441.6 914.5 435.6 904 432L323.4 230.1C285.1 216.8 243.4 237.1 230.1 275.3ZM887.9 478.2C900.7 482.6 907.4 496.6 903 509.3 900.7 515.8 895.8 521.1 889.5 523.8L657.7 623.1 312.6 278.1 887.9 478.2ZM623.1 657.7L523.7 889.5C519.9 898.9 510.5 904.8 500.4 904.3 490.3 904.2 481.3 897.6 478.2 887.9L278.1 312.7 623.1 657.7Z",
        "width": 1000
      },
      "search": [
        "sendmessage"
      ]
    },
    {
      "uid": "c319f1d9b92fddd61392103e68a20530",
      "css": "share",
      "code": 59409,
      "src": "custom_icons",
      "selected": true,
      "svg": {
        "path": "M792.4 642.4C734.9 642.4 683.6 669.8 650.8 712.2L376 558.8C382.5 540.3 386 520.4 386 499.8 386 479 382.5 459.3 375.8 440.6L650.3 287.4C682.9 329.9 734.4 357.6 792.2 357.6 890.6 357.6 970.9 277.4 970.9 178.8 970.9 80.1 890.8 0 792.2 0 693.5 0 613.4 80.1 613.4 178.8 613.4 199.5 616.9 219.5 623.6 238L349.3 391.2C316.7 348.4 265.2 321 207.4 321 109 321 28.7 401.2 28.7 499.8 28.7 598.4 109 678.6 207.7 678.6 265.4 678.6 316.9 651 349.7 608.2L624.2 761.6C617.5 780.3 613.8 800.5 613.8 821.2 613.8 919.6 694 1000 792.6 1000 891.2 1000 971.4 919.8 971.4 821.2 971.4 722.6 891 642.4 792.4 642.4ZM792.4 56.3C860.1 56.3 915.1 111.3 915.1 179 915.1 246.7 860.1 301.7 792.4 301.7 724.7 301.7 669.7 246.7 669.7 179 669.7 111.3 724.9 56.3 792.4 56.3ZM207.7 622.5C140 622.5 84.9 567.5 84.9 499.8 84.9 432.1 140 377.1 207.7 377.1 275.3 377.1 330.4 432.1 330.4 499.8 330.4 567.5 275.1 622.5 207.7 622.5ZM792.4 943.7C724.7 943.7 669.7 888.7 669.7 821 669.7 753.3 724.7 698.3 792.4 698.3 860.1 698.3 915.1 753.3 915.1 821 915.1 888.7 860.1 943.7 792.4 943.7Z",
        "width": 1000
      },
      "search": [
        "share"
      ]
    },
    {
      "uid": "dea8500b4a668ec3f2ec99ea21d27aea",
      "css": "chat",
      "code": 59410,
      "src": "custom_icons",
      "selected": true,
      "svg": {
        "path": "M915.1 598.8C907 578.8 884.2 569.1 864.2 577.2 844.2 585.3 834.6 608.1 842.7 628.1L888.7 741.9 752 681.6C742.1 677.3 730.9 677.2 720.9 681.4 674.3 701.4 624.2 711.5 572.3 711.5 363.1 711.5 222.7 547.7 222.7 394.8 222.7 220.2 379.5 78.1 572.3 78.1 765 78.1 921.9 220.2 921.9 394.8 921.9 408.4 920.6 424.7 918.4 439.5 915.2 460.9 929.9 480.8 951.3 483.9 972.6 487.1 992.5 472.4 995.7 451.1 998.5 432.3 1000 412.4 1000 394.8 1000 288.7 955.1 189.1 873.5 114.4 792.8 40.6 685.9 0 572.3 0 458.7 0 351.7 40.6 271.1 114.4 198.1 181.2 154.5 267.8 146.1 361.2 54.4 421.9 0 519.2 0 624.1 0 689.6 20.6 751.7 59.9 805.2L2.8 946.3C-3.1 961 0.5 977.9 11.9 989 19.3 996.2 29.1 1000 39.1 1000 44.4 1000 49.8 998.9 54.8 996.7L219.3 924.2C260.7 939.6 304.5 947.4 349.6 947.4 350.6 947.4 351.5 947.3 352.5 947.2 417.8 946.7 481.3 929.5 536.3 897.4 585.5 868.6 626.1 829 654.5 782.3 682.2 777.3 709.3 769.8 735.6 759.8L945.2 852.1C950.2 854.4 955.6 855.5 960.9 855.5 970.9 855.5 980.7 851.7 988.1 844.5 999.5 833.4 1003.1 816.5 997.1 801.8L915.1 598.8ZM349.6 869.1C349.1 869.1 348.6 869.2 348 869.2 308.1 869 269.8 861.2 233.9 845.9 224 841.6 212.7 841.7 202.8 846.1L111.3 886.4 140.8 813.4C146.3 799.9 143.8 784.5 134.4 773.4 97.6 730.3 78.1 678.6 78.1 624.1 78.1 561.6 104.4 502.5 150.3 457.7 164.6 535.6 205 610.2 265.9 668.8 341.6 741.7 441.9 784 550.1 789.1 499.3 839.1 426.6 869.1 349.6 869.1ZM570.3 435.5C591.9 435.5 609.4 418.1 609.4 396.5 609.4 374.9 591.9 357.4 570.3 357.4 548.7 357.4 531.3 374.9 531.3 396.5 531.3 418.1 548.7 435.5 570.3 435.5ZM726.6 435.5C748.1 435.5 765.6 418.1 765.6 396.5 765.6 374.9 748.1 357.4 726.6 357.4 705 357.4 687.5 374.9 687.5 396.5 687.5 418.1 705 435.5 726.6 435.5ZM414.1 435.5C435.6 435.5 453.1 418.1 453.1 396.5 453.1 374.9 435.6 357.4 414.1 357.4 392.5 357.4 375 374.9 375 396.5 375 418.1 392.5 435.5 414.1 435.5Z",
        "width": 1000
      },
      "search": [
        "tabbarchat"
      ]
    },
    {
      "uid": "5d75ad849308cccbfdb8d239f0b827d5",
      "css": "profile",
      "code": 59411,
      "src": "custom_icons",
      "selected": true,
      "svg": {
        "path": "M861.3 153.9C766.9 55.3 636.3-0.3 499.9 0 224.1-0.3 0.3 222.9 0 498.6-0.2 634.9 55.4 765.4 153.9 859.7 154.1 860 154.3 860.4 154.5 860.7 157.4 863.5 160.6 865.8 163.5 868.5 171.5 875.6 179.6 883 188 889.9 192.6 893.5 197.3 897.1 201.9 900.3 209.9 906.3 217.9 912.3 226.3 917.8 231.9 921.3 237.8 924.9 243.6 928.5 251.3 933.1 259 937.8 267 942 273.7 945.6 280.6 948.7 287.5 951.9 295 955.5 302.3 959.1 310 962.3 317.7 965.5 325.4 968 333.2 970.8 341 973.6 347.7 976.1 355.2 978.4 363.6 981 372.2 982.9 380.8 985 387.9 986.8 394.9 988.8 402.2 990.2 412.1 992.2 422.1 993.4 432.1 994.8 438.2 995.6 444.3 996.9 450.5 997.5 466.9 999.1 483.4 1000 500 1000 516.6 1000 533.1 999.1 549.5 997.5 555.7 996.9 561.8 995.6 567.9 994.8 577.9 993.4 587.9 992.2 597.8 990.2 604.9 988.8 612.1 986.6 619.2 985 627.8 982.9 636.4 981 644.8 978.4 652.3 976.1 659.5 973.4 666.8 970.8 674.1 968.2 682.4 965.4 690 962.3 697.6 959.1 705 955.5 712.5 951.9 719.4 948.7 726.3 945.6 733 942 741 937.8 748.7 933.1 756.4 928.5 762.2 924.9 768 921.7 773.7 917.8 782.1 912.3 790.1 906.3 798.1 900.3 802.7 896.8 807.4 893.6 812 889.9 820.4 883.1 828.5 875.9 836.5 868.5 839.4 865.8 842.6 863.5 845.5 860.7 845.7 860.4 845.8 860 846.1 859.7 1045.2 669 1052 353 861.3 153.9ZM781 822.3C774.5 828 767.8 833.5 761 838.7 757 841.8 753 844.8 748.9 847.8 742.5 852.4 735.9 856.9 729.2 861.1 724.4 864.2 719.4 867.2 714.4 870.1 708.1 873.7 701.7 877.3 695.3 880.9 689.5 883.8 683.7 886.5 677.9 889.2 672 892 665.6 894.9 659.2 897.4 652.9 899.9 646.2 902.3 639.6 904.5 633.6 906.6 627.5 908.7 621.4 910.6 614.3 912.7 606.8 914.4 599.4 916.2 593.6 917.6 587.9 919.1 582.1 920.3 573.6 921.9 565 923.1 556.3 924.2 551.4 924.9 546.5 925.8 541.5 926.3 527.8 927.6 513.9 928.4 499.9 928.4 485.9 928.4 472 927.6 458.3 926.3 453.3 925.8 448.4 924.9 443.5 924.2 434.8 923.1 426.2 921.9 417.7 920.3 411.8 919.1 406.1 917.6 400.4 916.2 393 914.4 385.6 912.7 378.4 910.6 372.3 908.7 366.2 906.6 360.2 904.5 353.6 902.2 347 899.9 340.6 897.4 334.1 894.9 328.1 892.1 321.9 889.2 315.8 886.4 310.2 883.8 304.5 880.9 298.1 877.5 291.7 874 285.4 870.1 280.4 867.2 275.4 864.2 270.6 861.1 263.9 856.9 257.3 852.4 250.9 847.8 246.8 844.8 242.8 841.8 238.8 838.7 232 833.5 225.3 828 218.8 822.3 217.2 821.2 215.8 819.7 214.2 818.3 215.8 696.9 293.9 589.6 408.9 550.7 466.5 578.1 533.3 578.1 590.8 550.7 705.9 589.6 783.9 696.8 785.5 818.3 784 819.7 782.5 821 781 822.3ZM375.4 286.3C414 217.5 501.1 193.1 569.8 231.8 638.6 270.4 663 357.5 624.3 426.2 611.5 449.1 592.6 467.9 569.8 480.7 569.7 480.7 569.4 480.7 569.2 480.9 559.8 486.2 549.8 490.5 539.4 493.6 537.5 494.1 535.8 494.8 533.8 495.3 530.3 496.2 526.5 496.9 522.9 497.5 515.9 498.7 508.9 499.4 501.9 499.6H497.8C490.8 499.4 483.8 498.7 476.9 497.5 473.3 496.9 469.5 496.2 465.9 495.3 464 494.8 462.3 494.1 460.3 493.6 450 490.5 440 486.2 430.5 480.9L429.8 480.7C361.1 442.1 336.7 355 375.4 286.3ZM848.8 747.5C825.9 640.6 755.5 550 657.7 501.4 737.7 414.3 731.9 278.7 644.7 198.7 557.6 118.7 422.1 124.5 342.1 211.7 266.8 293.6 266.8 419.5 342.1 501.4 244.2 550.1 173.8 640.6 150.9 747.5 14 554.7 59.3 287.4 252.2 150.4 445 13.5 712.3 58.9 849.2 251.7 900.7 324.2 928.3 410.9 928.3 499.8 928.3 588.7 900.5 675.3 848.8 747.5Z",
        "width": 1000
      },
      "search": [
        "tabbarprofile"
      ]
    }
  ]
}