{
  "project_info": {
    "project_number": "655516638335",
    "firebase_url": "https://whotoc-app.firebaseio.com",
    "project_id": "whotoc-app",
    "storage_bucket": "whotoc-app.appspot.com"
  },
  "client": [{
    "client_info": {
      "mobilesdk_app_id": "1:655516638335:android:5a962b0493af854ff3334a",
      "android_client_info": {
        "package_name": "com.whotoc_app"
      }
    },
    "oauth_client": [{
      "client_id": "655516638335-9odm49ethnst82q74fc1esbbvlake5cf.apps.googleusercontent.com",
      "client_type": 3
    }],
    "api_key": [{
      "current_key": "AIzaSyBbEoH7GO81I5SO_LWIDUhYBtrTOUThn8M"
    }],
    "services": {
      "appinvite_service": {
        "other_platform_oauth_client": [{
            "client_id": "655516638335-9odm49ethnst82q74fc1esbbvlake5cf.apps.googleusercontent.com",
            "client_type": 3
          },
          {
            "client_id": "655516638335-8i85m3f906oonf3900ms96r1cqc4nf4b.apps.googleusercontent.com",
            "client_type": 2,
            "ios_info": {
              "bundle_id": "com.miguelati.whotoc"
            }
          }
        ]
      }
    }
  }],
  "configuration_version": "1"
}